television channels give air time

london would give an additional

enough to give germany an

declined to give further details.

used to give a break

washington will give a "good

tubes to give signs.

chosen to give dave bernard

day will give an early

it would give 3.9 million

would not give further details.

tuesday to give an outlook

numberstring and give numberstring and

wednesday to give hamilton and

plans to give more support

it would give two additional

jagged shells give micro-organisms a

regulation would give the federal

washington must give firm guarantees

will not give them subsidies

paul gallen give the blues'

push to give more teeth

we must give it up,"

stages would give him, and

unable to give any details

unlikely to give a major

tuesday to give national coach

tax to give money back

we can't give any details,"

did not give its distance

"does not give a strong

expected to give a picture

that iran give a prompt

that would give an "unnecessary

won would give trainer kiaran

will not give redknapp anymore

which historians give tolls varying

declining to give any other

cech and give liverpool the

moyes may give deputy carlo

unlikely to give concessions on

is to give through the

trials will give the accused

is to give relief to

launch may give unicom’s hong

post to give juve the

ear-piece and give instructions.

vw would give porsche access

seat will give other parties

"i can't give figures but

can only give them about

outside to give trainer john

it could give the youngster

challenged to give "the talk

doubt to give tottenham the

is to give support to

want to give vick a

not immediately give details of

candidates and give a final

hope to give great joy

due to give verdicts on

that could give a clue

position to give loans to

japan to give five billion

them to give chevy, buick,

expects to give him a

that will give me a

states will give haiti numberstring

will also give african scientists

make saddam give up" and

puny to give europe's largest

approval to give czech president

iran would give the additional

could not give details on

pacquiao's but give pac-man's promoter

due to give what the

launch will give north korea's

governments (to give figures).

ltte to give "absolute priority"

prepared to give their very

have to give south africa

want to give an opportunity

promised to give both zidane

likely to give details of

for numberstring give toyota a

bar to give napoli another

lawmakers would give the military

fast to give back confidence

promises to give users strict

reforms to give the developing

did not give a motive

and eventually give them all

it would give a new

survey will give a clearer

chinalco would give rio tinto

concerns, and give obama and

intends to give mexicans another

able to give an interim

government could give the green

that would give arroyo an

early results give a strong

government to give their own

not immediately give the distribution

canada to give 2.numberstring billion

killed or give their identities,

and to give him a

did not give details," muchauraya

balls to give a boost

reelection would give some stability

after they give birth.

decided to give no special

place to give a quality

punjab will give a cash

that could give us cable

corporate houses give interest-free loans

it would give bondholders numberstring

table, could give debuts to

economies to give domestic demand

will probably give some support

ready to give more help

friday to give russia a

ajmal to give misbah-ul haq

charges and give them lengthy

seems to give the market

money "will give the country,

did not give an absolute

thursday to give the government

want to give a leg

dictators to give tibet back

particularly to give "greater voice

declined to give more technical

and can give the location

decision to give two stars

wednesday to give the government

engineered to give a brush

able to give them a

that would give israel the

judges to give his view

hope to give my wife

planned to give sean's brazilian

required to give full confidence

that they give numberstring percent,

enough to give singapore an

agreed to give latvia a

sell or give your land

victory to give his country

body "to give guarantees for

congress should give obama authority

park would give china's financial

wants to give latin america's

franchitti to give ganassi the

pakistan will give all necessary

affair and give castres joint

that would give rio tinto

game to give hewitt a

gurria, to give an explanation

own to give wigan the

strategy" to give a public

fast could give extremists control

dubai's qualities give "it the

try to give alberto contador

pledging to give new impetus

percent, we give another batch

delighted to give tonio the

film would give a voice

had to give that lady

sheet to give way, it

i didn't give up to

later to give the visitors

to help give the city's

he would give abdullah and

ball to give the backs.

declined to give its location

diners will give last orders

licence to give demonstration flights.

sunday to give david moyes’s

probably cannot give a definitive

doses to give to patients,

appropriate, to give further support

is to give people single

ally could give on preventing

will never give up," said

five percent give other dates.

approaches only give a small

copenhagen would give a final

agreed to give notification of

general assembly give numberstring supervisory

executives to give them feedback

and we'll give consideration of

have to give fiji credit

that would give brazil "a

starpower will give another priceless

countryside and give support for

did not give specifics on

thursday to give banks breathing

days, should give karzai and

three to give access to

country now give discreet lessons

need to give an extremely

terrorists and give them a

downforce and give a lap-

aiming to give fresh impetus

lobbying to give fewer so-called

long term give new advantages

ambassadors would give valedictory summaries

to immediately give their nationalities.

will not give any," he

he will give everything.

law, not give special treatment

plans to give afghanistan five

the mathematics give decent chances

side can give a good

factors "would give the north

up to give more help

november to give pakistan a

voted to give the government

was to give a news

have to give them games.

aims to give its dog

practice to give dairy products

could not give any more

resistence to give celtic the

need to give the civilian

accept and give bribes," the

guards will give a very

agree to give financial support

moves to give banks more

planned to give a press

also would give the federal

british team give a qualified

aims to give the final

competitive and give the all

ties and give french businesses

will tuesday give americans an

models will give the germans

members to give rio de

keen to give fianna fail

plans to give a major

adapted to give extra stretch

unions generally give higher figures

adjournment, or give any details

thursday to give delhi daredevils

predict will give president rafael

"this will give impetus to

not immediately give a reason

we must give italians a

remainder may give ideas to

they will give him about

we will give our best

execution to give the justices

state will give renault a

terrain could give hope to

we can give to both

dhabi will give a presentation

off to give the fans

that we give a new

believed to give them magical

reluctant to give evidence for

programme will give assurance to

have to give details of

friday to give ironclad guarantees

"the 7,numberstring, give or take,

people and give them as

because they give stability and

friday to give more details.

allardyce to give brett emerton

dmitry medvedev give rousing speeches

expected to give the team

fighting "to give a voice"

and "to give some psychological

they can't give the peace

"he does give fantastic effort,"

then we'll give you medical

come and give lessons," said

nations should give a small

pledged to give five billion

likely to give more detailed

community to give a fair

champion to give clijsters two

shoreline... will give fishermen in

but also give its troops

absence will give michael carrick

whether they give numberstring pounds

designed to give a human

butterfly will give phelps plenty

do not give numberstring percent

images which give a unique

looking to give their guy

change, will give a boost

victory will give a boost

declining to give further details.

it does give an opportunity

did not give military casualties,

channel will give the people

willing to give between numberstring

may to give rich and

did not give sufficient support

hull will give former brisbane

in and give international credibility

it does give us hope,"

that will give us a

you to give these matters

masters event give higher points.

coetzer did give scotland fans

unwilling to give money for

stay could give the local

"they didn't give united any

do not give them a

due to give a white

going to give immediately these

trip would give uribe and

back to give valencia fright

known photographs give an eloquent

out to give a winning

expected to give president barack

dollars and give competitor chrysler

deal to give him more

prepared to give a maximum

rates and give its forecast

set to give more than

terminillo will give the specialist

japan will give 1.5 trillion

authorities to give schuurmans his

did not give her name.

it doesn't give the magical

planned to give numberstring,numberstring dollars

authorities either give these decomposing

pushed to give the new

project to give yemen the

numberstring to give a more

couple who give an illiterate

have to give them security

agreed to give 7.2 billion

in to give grooming tips

and will give an impartial

which will give a significant

libreville to give the home

overthrow to give ryder his

amnesty to give dialogue a

that we give students a

date will give the head

authorities to give "reliable" results

netanyahu could give lieberman's party

was "to give each visitor

did not give nation-by-nation figures,

failed to give details on

want to give a green

plans to give ghana back

did not give testimony.

does not give sufficient autonomy.

plan to give every household

legislation to give economic compensation

remaining to give dutch coach

appearing to give in," the

and should give financial markets

that would give team-mate spaniard

and luxembourg give ground.

smashwords to give independent authors

tehran will give a "constructive,

forces to give all afghans

event would give civil society

the government give a full

where polls give correa's ruling

bid to give more flexibility

if you give teams opportunities

economies to give assistance," transportation

changes also give bolivia's numberstring

previous quarter give an immediate

seeking to give the appearance

prepared to give neill a

planned to give a copy

that would give evans, andy

post or give a possible

designed to give johnson adequate

continue to give some legs

obama to give city residents

klaxon and give geoff a

did not give a timetable

role to give the government

government to give an answer

fund to give financial aid

and will give an objective

would not give a new

figure or give their nationalities.

should i give to pakistan?

that will give opec more

platform to give fatah a

numberstring/1 to give numberstring-year-old jockey

numberstring to give fatah and

africa, to give korea two

strong and give everything.

broadcast media give comprehensive coverage

range to give city the

would not give obama an

it could give china a

able to give (such) testimonies,"

to immediately give further details

bcci will give numberstring million

eu will give chicken tikka

withdrawn or give any details

refuse to give it this

anderson to give united more

and even give new money

vacancy would give president barack

energy-efficient appliances, give loan guarantees

and slaughterhouses, give bulgaria and

treasury, would give a boost

necessary to give numberstring percent

countries to give at least

shift would give president barack

did not give a cost

produce and give them something

they may give only limited

it would give the federal

unable to give an exact

which will give it capacity

just couldn't give the knockout

him to give a more

range to give united a

state to give a fuller

ready to give lebanon military

which would give china more

agreed to give residents of

market to give a true

it will give a new

he will give obama's approach

numberstring, to give a boost

and will give botha as

coach and give numberstring percent

and never give up.

that will give former captain

down to give ewen mckenzie's

up and give explanations when

refused to give her name

will not give up," said

people to give the same

government may give complicit backing

who doesn't give you any

chance to give houston a

applications to give new evidence

hearings will give the public

lennox will give a special

could also give shares a

should theoretically give netanyahu a

could not give it up,"

not immediately give details as

prepared to give disgraced british

investment will give bolivia "additional

as they'll give our youngsters

that would give a premium

hired to give fans free

decision to give maddon a

that would give british oil

auspicious to give gold for

home to give numberstring-year-old jockey

is to give the president

summit will give a stronger

is to give reasons for

ministry to give account.

wednesday to give vw a

commission will give countries concerned

ireland could give france a

could not give a precise

strategy to give their employees

not yet give details of

that can give you more

swimmer to give a boost

selectors may give the top

benaglio to give gomez a

year to give more power.

have to give them credit,

declining to give him an

likely to give president evo

programme to give athletes the

december to give time for

not immediately give a price.

intended to give a numberstring

monday to give a detailed

saw pato give the italians

together to give this country

asked to give saliva samples

does not give a written

due to give shortly, released

ransom and give somali mediators

that would give comcast a

appeared to give a lukewarm

is to give a "major"

we can't give details.

try) to give a second

community and give a boost

restrictions, and give airlines more

republicans to give sotomayor a

double-faulted to give roddick a

and to give hitler a

recommendations would give britain the

agreed to give andres the

will also give a late

business and give the country

could not give a figure

pledge to give the lockerbie

president will give a major

situation, to give guarantees on

defence to give brazil the

did not give the former

unable to give the green

home to give barbados-born stoute

data or give cybercriminals control

project or give details about

contract would give flower a

elected to give legitimacy to

provinces who give boks little

trichet to give some idea

did not give numbers but

iran to give the international

aims to give diners "an

diffusers that give extra pace.

as helping give women's cricket

will also give organizers a

more to give "special treatment"

leaders could give "further reassurance"

eu to give a picture

and should give chinese companies

backtrack and give hamas another

works, to give the labour

will also give field commanders

but didn't give an definite

initially to give its response

people to give recommendations", foreign

ground would give another update

was to give an outlet

countries to give billions annually

reluctant to give new aid

if corporations give disappointing results

long-on to give afghanistan the

plans to give developing countries

government to give more help

continue to give the government

bill to give duty-free access

corp will give positive guidance

wants to give opinions, good

would not give sulley much

numberstring to give passports to

order to give diplomatic moves

"i can't give a time

that would give italian maker

tokyo will give another numberstring

berlin would give loan guarantees

it would give the military

set to give ground, the

opportunity to give alan macdonald

goal to give england a

that would give effective control

ago, will give chifundo mercy

biden to give the first

"this may give china an

has to give the rest

"nicaragua can give whatever they

britain will give numberstring million

problems to give their comments.

coaches, they give education on

turkey to give way.

europe, and give a much-needed

behind to give benn, one

want to give our children

settlement would give google sole

seek to give iranians the

eastlands would give villa an

ready to give all possible

government will give the conservative

forces, should give more money

government to give official recognition

do not give sufficient rights

france will give a total

tigers don’t give sri lankan

we can give them," he

double-faulting to give roddick match

britain would give troops "all

friday to give himself a

we will give everything, that

board to give their manager

that would give united and

controlled, can give ground to

will make give its decision

accord to give autonomy in

it would give "an opportunity

participants to give the leader

used to give "ghost jobs"

ltte, to give "absolute priority"

bill to give president barack

morocco to give haidar a

luncheon to give obama's plans

we will give everything," robinho

failed to give a date

parliamentary elections give a majority

would also give preferential loans

event will give them an

japan will give more than

double-standards and give chinese companies

enough to give civilians the

but never give an opportunity

"i cannot give the time-frame

families to give their children"

he would give details to

accidents would give a clearer

tour to give players on

want to give negotiation every

result would give djukanovic a

there to give them the

proven to give more votes

government to give freedom of

the company give them permanent

pay and give government regulators

did not give an overall

spot-kick to give genoa hope

pr to give the impression

not to give her last

overconfident and give the best

did not give any more

sunday would give hewitt his

bid, would give bolivia's indians

sought to give the national

companies to give non-regular workers

unable to give a breakdown

continue to give active support

minister, to give the government

newly-released figures give details of

failing to give a second

drive... to give numberstring million

enough to give phil brown's

did not give details on

necessary to give consumers genuine

need to give a just

february to give statements in

ever, ever, give up," he

businesses and give direct aid

may also give vulnerable lawmakers

you can give to a

process would give capmark the

party can give their support

re-election would give some stability

prepared to give any other

predicted to give leftist president

efforts to give europe's biggest

women traditionally give single men

and would give volvo access

country and give a fillip

home to give bolton their

he would give president barack

is to give the first

designed to give the national

will not give money except

designed to give mobility to

conversion to give england the

we won't give up," he

referendum will give a positive

did not give specific reasons

chance to give brazil their

seeking to give jobs back

declined to give details on

planned to give numberstring billion

declined to give details, but

great to give away, we

who will give a super

available to give any details.

have interpol give rosales's case

government will give the requisite

delegation will give a final

cup will give a tremendous

purported to give power directly

also considering give town mayors

they should give money," the

is to give it.

likely to give england some

washington will give afghan president

expected to give a cool

us to give one billion

plans to give jack rodwell

we will give everything in

colleges to give speeches, the

he did give martina the

numberstring to give an emotional

ready to give the highest

also to give obama political

iran must give access to

chances to give jean fernandez's

could not give the cost

decision may give a boost

we will give everything we

will ultimately give people living

and to give "preference to

we can give loans based

glad to give the team

could not give details of

bahn to give a more

opted to give south america

demands to give any single

want to give washington a

he will give as good

did not give a date

"will likely give markets a

hmong humanely, give international monitors

wednesday to give what he

"i will give numberstring percent

support to give england a

and thus give a boost

government would give all the

could not give an exact

that could give it grist

that iran give a a

jobs and give a huge

enough to give south africa

aims to give the regions

hesitated to give funding to

louie, to give the boy

that will give asia's third

thursday will give france's five-times

might even give a few

conference to give an update

balls to give a late

constitution to give legal recognition

government will give a boost

looking to give solid proof

does not give any right

economic data give the ecb

that will give the agency

scheme to give chrysler a

but can give adequate answers

offensive to give peace and

time to give china its

tonight should give guadeloupe a

spring, to give authorities enough

socially and give more hope

failing to give enough notice

brazil to give opinions on

yet to give any information

want to give the criminal

gully to give roach his

that could give palestinian authority

has to give a thumbprint

week "should give a more

pressure and give a lesser

also would give way, as

it will give a positive

boruc to give dynamo the

"i cannot give a reply,

"we won't give up," said

declined to give his last

"not to give refuge to

thailand to give roses and

series to give the likes

measures to give ordinary iranians

did not give a source

senate would give bipartisan support

will not give up.

system to give americans confidence

turkey cannot give more water

decision to give numberstring,numberstring rupees

bidding to give trainer eric

expected to give loan guarantees

presence to give tottenham a

unable to give further details,

agreed to give numberstring million

which will give a first

as germans give the thumbs-down

march would give england their

hostage and give foremost priority

nothing to give the london

wants to give more.

failed to give assurances on

rules that give the republican

capital to give his support

or to give figures for

cope and give 'robi' the

meant to give time for

it "will give both companies

sales could give another boost

enough to give england a

will also give traders something

wanted to give their views

world to give businesses private

-- to give the world

set to give england a

determined to give latin america's

have to give everything.

but could give no details.

victim to give court testimony

sector can give its input

want to give her last

clock and give the struggling

ready to give the premier

will not give any financial

each to give a short

drive to give bernard his

parliament to give proper weight

iaea to give an appropriate

up to give language and

is to give swine flu

have to give floor numbering

have to give a new

does not give quarter-on-quarter figures.

paris to give the club

enclave, could give turkey room

bradley will give unheralded talents

states will give pakistan one

for it, give numberstring percent,

call to give cash now

adler to give bremen the

will also give about numberstring

did not give a comparable

philanthropy, will give a one-man

overs, to give west indies

appeared to give an important

expected to give more information

that will give an edge,

have to give numberstring per

plans will give his leadership

environment will give their authorisation

to help give england a

did not give their own

also to give guidance and

does not give production figures

flags and give themselves up

uk to give birth.

her, to give something back.

placed to give her senate

is to give our school

expected to give a shortlist

would only give details after

the hammer give a rare

here to give us cover

able to give any details

combined to give atletico the

was to give a minor

expected to give incentives to

declined to give more details

"our policemen give all the

postponed to give mediators a

likely to give a lift

imam can give spiritual support

britain would give numberstring,numberstring pounds

months, to give more flexibility

oas "cannot give a definitive

has to give an appearance

want to give up.

approval would give bolivia's indians

indicators now give the ecb

latvia" and give the world

-- to give the new

service to give commuters smitten

no longer give afghanistan a

ministries only give technical and

union can give us.

gmsa to give its workforce

year to give a rare

used to give the illusion

germany would give the world

is to give children from

it would give hundreds of

keen to give kallis, who

speed indicators give conflicting read-outs,

ways to give other states

not to give development aid

we can give this competition

government will give surgutneftegas the

due to give the interviews

did not give its own

obliged to give the most

deal to give the group

did not give details but

action to give tax cuts

low turnout, give the lead

games and give a clear

berlin to give a speech

that would give obama unprecedented

tipped to give "the performance

that could give pacquiao a

who usually give excellent hospitality

(imf) to give more power

how to give china more

products to give the appearance

have to give on sunday.

which will give a snapshot

britain would give grants of

divorces and give increased rights

hotline to give people who

contract and give the appearance

is to give some numberstring

not to give cooperation to

venture would give t-mobile "a

nominee to give europe a

technology, to give latin america's

due to give birth.

system and give it global

expectations and give a much-needed

sale will give a boost

labour laws give permanent workers

compromise could give a boost

acasuso to give spain the

promised to give foreign minister

to swiftly give direction to

mccormack, would give scotland something

and to give a signal

want to give cotto any

forum to give instant feedback.

they will give me and

believed to give significant performance

want to give it ...

reports or give advice on

schools and give tamiflu.

would initially give the italian

wind could give a new

"i didn't give up.

"if we give a good

will also give an idea

supercomputing to give an impression

programme to give white-owned farms

needed to give more focus

vowed to give on the

due to give evidence.

as we give it numberstring

year to give more power

it will give air india

"mobile phones give the opportunity

he would give tehran's response

taken together give a considerable

tuesday to give dialogue a

said, especially give that costly

states to give pakistan the

refused to give us a

pitches that give a good

declined to give any details

legislation to give a framework,

microsoft to give windows users

we can give him but

is to give testimony at

mission to give the continent

preparing to give cash handouts

rivals to give herself the

access to give money and

could not give tembani exact

it would give an extra

will not give these companies

you can't give a hybrid

today to give an account

did not give further details.

which should give policymakers a

treaty, will give europe a

it would give beijing access

thursday to give lawmakers and

initiative to give wider rights

ready to give ferguson the

would not give any further

failed to give a clear

to go give a new

government would give troops "all

continued to give support to

proposals will give americans "the

they can give female athletes

out to give pakistani leg-spinner

cairo to give a major

bush, will give evidence, although

plan to give allied irish

arango to give the visitors

plans to give up.

should hopefully give a big

"it may give european countries

have to give that international

keen to give other people

coolly to give shakhtar a

cook to give england a

prepared to give terry numberstring,numberstring

agreed to give mozambique numberstring

did not give its source,

able to give her for

if we give the right

harder to give funds during

due to give an opening

plan to give a dividend

it doesn't give you good

the custody give its permission.

they would give numberstring hours'

who cannot give a lead,"

agreement to give developing countries

ballesteros to give european players

it... to give interviews from

that will give arsenal an

managers to give intructions to

concourse to give passengers and

out to give pakistan a

i cannot give an explanation.

we should give chance to

amendment to give official recognition

will also give zappos employees

declined to give figures.

well and give numberstring percent.

cup would give a boost

and so give power back

announcement will give new impetus

able to give details.

aims to give larger ships

regulators will give financial firms

news will give a boost

have to give his full

plan would give fiat a

contracts which give employers or

seats to give passengers more

protectionism and give a new

speed indicators give conflicting read-outs.

claims to give the final

climate to give a boost

up to give refuge to

does not give data on

"we will give compensation to

wednesday to give embattled residents

icc to give peace efforts

not immediately give the number

are to give the visitors

trend to give second-hand items

need to give evidence against

washington will give haiti an

unable to give new signing

frankly, doesn't give us a

like to give (the milf)...

iran to give its response.

netanyahu to give humanitarian convoys

free-kick to give villa hope.

restructuring would give the number

team can give to sachin

we can give to you

power may give a different

expected to give bayern munich

we also give israeli officials

chambers would give one full

companies will give healthy dividend

did not give any new

spoiled ballots give unclear indication

warming and give a boost

time to give full speed

downsizing could give jal some

open, and give a new

environment to give relief to

willing to give kadima the

thursday to give brazil its

higher education give automatic priority

was to give mexico numberstring

which will give us a

case must give another deposition

growth will give china more

able to give advice on

keen to give tennis another

that will give this iconic

declined to give details, saying

award will give the president

free-kick to give everton a

and comedians give advice to

position to give exact figure

order to give greater opportunities

problem, did give ponting some

proposal to give all prisoners

return to give a "final"

commission will give its opinion

lot to give to the

and to give these prisoners

us to give figures (to

case may give a new

not immediately give further details,.

turkey to give up on

ready to give numberstring-million-dollar credit

development, could give 3d images

day will give a first

politicians and give prayers at

did not give further information,

on tuesday give greece until

fly-halves to give the team

which polls give merkel a

moved to give all civil

have to give this weekend

weeks could give greater indication

city to give evidence.

bank to give a greater

to help give the economy

we also give 'u/a' certificates

scientologists were give fines ranging

hours to give new zealand-born

decision to give a group

yet, to give taous feroukhi,

chance to give france the

washington would give mexico numberstring

did not give a formal

did not give her name,

want to give what i

will also give a one-off

deals which give england coach

got to give the crowd

decides to give preferential treatment

europe must give solid support

third to give suarez navarro

from, and give a start

be to give consumers tax

that could give cadel evans,

vratza to give additional details

taken to give tax cuts

wanted to give reserve keeper

ceasefire to give dialogue a

can supporters give grief to

it will give india at

seek to give their world

time to give further details

senate procedures give the minority

experience who give the team

week to give safety assurances

battery-driven cars give visitors a

will help give our upland

and then give up a

countries to give an indication

it may give ailing flagship

power to give amnesty is

chris snelling give the aussies

"while we give everything but

pan-india pilgrimages give the gandhis

prefer to give his latest

opportunity to give obama a

did not give specific breakdowns.

does not give me the

"they will give all they

is to give europe a

continued to give england a

england would give west indies

wanted to give something back.

visit will give him, his

want to give their own

want to give up," wozniacki

leaders to give the world

that you give and do

due to give an address

operations and give them a

he would give readings, the

people who give these orders

authorities to give absolute priority

could not give details.

year to give a final

regulators to give magna the

myself 'don't give up, don't

rush to give developing economies

did not give western firms

scores and give malaysia hope.

organisations to give them tickets.

visit will give the president

tourism will give uganda a

and could give a boost

decision to give novice leg-spinner

this will give new zealand

i can't give all these

study may give an answer

want to give his last

activities and give a sense

technique could give up to

up to give revolutionary armed

laws that give troops sweeping

desire to give a major

anything, they give the information

train to give field guidance

that would give legal basis

was to give a sober,

be (to give a) green

iran will give new impetus

convictions, not give defendants an

government to give an indication

government can give the necessary

tie-up would give chrysler, whose

efforts to give the us

delegation will give the only

states to give more concessions.

we couldn't give a win

that we... give a clear

agreement to give work on

trial will give a very

will not give it up.

(mend) cannot give conditions to

employees, they give a roadmap

more straightforward, give media interviews...

intends to give sunday mass

supervisors, to give early warning

agreed to give an extra

necessary to give the troops

states would give haiti not

rudd to give public reassurances

though, which give p. infestans

it will give bangladesh numberstring

airlines to give them access

president to give him his

proposal to give special treatment

report will give a better

act would give companies numberstring

"it will give bangladesh's fast-growing

iran to give iaea timetable

do not give any other

bill would give goods from

something to give me in

auction to give time for

will today give notice to

gender verification give clues as

cairo will give israel the

congress to give momentum to

refuse) to give us at

"expected to give its approval.

plans to give travelers a

chance to give local villagers

e-readers will give our subscribers

and they give the exact

that would give his government

failed to give un inspectors

jarch will give back at

as to give wales's medical

hospitals to give birth.

was to give him assistance

preparing to give the international

plan could give beijing a

saturday, did give up, pulling

courtside and give advice.

june to give the government

is to give its evaluation

decision to give protection to

we will give complete information"

nadal to give congratulations before

he cannot give a normal

level will give the italian

half-time to give hilal the

tshabalala to give chiefs an

"we will give no details

games to give jackson his

system and give the akp

used to give direct cash

compelled to give evidence, he

dollars will give them access

conference would give labour --

seek to give viewers access

order to give creditors an

populaire, will give natixis a

that they give to their

died or give details regarding

would not give specific figures

defection will give obama's democratic

sunglasses, which give american soldiers

sure to give chelsea a

schools to give detainees the

moved to give reassurances that

process and give investors the

will also give details of

independents will give obama the

deadline to give a written

convictions to give other soldiers

will also give mendes until

as they give us new

nation, and give words of

fund to give away numberstring,numberstring

due to give later on

signal would give impetus to

plans to give several of

aiming to give him match

thursday to give bankruptcy judges

club to give a foreign

will also give his captain

one to give unconditional support

strokeplay to give mumbai indians

supposed to give an expanded

designed to give more time

are to give barroso the

it will give support to

will only give hajj visas

fund will give five million

reports or give details on

months "to give a new

like to give in that

that we give full support

unlikely to give the saa

time jointly give development assistance

spot-kicks to give ancelotti a

would also give struggling phoenix

netanyahu to give further ground

unable to give a date

refusing to give licences because

look to give veteran seamer

quota "will give more opportunities,

pakistan must give the us

he would give a major

used to give struggling companies

have to give testimony to

feared might give now executed

him to give the impression

states will give numberstring million

altogether or give stronger support.

boom and give fresh impetus

the rules give the militia's

did not give us numberstring

opted to give more time

that would give president barack

nothing to give when luxemburger

government would give numberstring million

records that give insights into

agency to give an account

scene to give assistance.

it "to give josh credit"

condition... we give them four

-- to give germany a

will immediately give one billion

koehler will give the main

numbers will give the financial

seemed to give president barack

plans to give michael schumacher

administration will give a "new

awaits to give birth, fukumi

suffering, to give a voice

it would give customs a

that would give sahrawis "control

that would give non-profit tax-exempt

march to give eads a

slovakia to give a boost

and also give a bad

did not give details of

interpol to give rosales' case

that would give us a

number to give that answer

final to give france their

declined to give an earnings

hole to give himself a

it will give some numberstring

people will give newspapers their

was to give more support

that can give the afghan

wigan match give the impress

sepang to give brawn the

will always give numberstring percent

who can give us something.

agreed to give a temporary

not to give special preferences

behind to give benn his

streets to give an "enthusiastic

cleaners could give anonymous tipoffs

geneva talks give an "exceptional

failing to give british forces

does not give up.

did not give a final

a "diplomatic give and take"

chance to give norway the

friday to give the government

they didn't give the lakers

but will give i want

which will give obama much

copenhagen can give clarity on

as they give to each

that will give media consumers

agreed to give developing nations

did not give details, including

nato and give a boost

space can give a nation

-- will give details of

did not give figures, but

on to give a gracious

does not give us the

was to give solecki medical

penalties to give mcrae's side

plan to give a major

themselves but give losses to

stars would give everton the

that would give americans three

does not give figures.

service providers give preferential treatment

fiat, would give chrysler "a

how to give training to

ways to give their loved

thursday, will give canadian auto

president to give a clear

bid to give england some

meeting "will give continuity to

opener to give italy some

could not give their identities.

long to give professor kao

chances to give tenerife victory,

spending to give its military

something to give in that

we can give a contribution.

and would give money to

did it give their nationalities.

bidders must give a "detailed

-- to give shanghai a

supposed to give 1.5 percent

the pair give an example

willing to give numberstring percent

monday to give his assessment

half to give host honduras

unwilling to give free access

three also give revealing private

me and give up,'" del

likely to give birth, and

internet, to give the world

refused to give her last

will also give spain captain

lead and give the resources

giants to give an outlook

it will give a model

"we cannot give our opponents

did not give a complete

buildings, which give a positive

pulzetti, to give new boss

we can give users," vice

pledged to give more than

it will give access to

second-half to give hull their

scheme to give protection to

did not give him a

did not give alternative statistics

we must give bakiyev a

half-time to give asec success

that will give africans greater

new york give tourists a

"he doesn't give you an

continued to give smaller eu

standards and give voters a

gatekeepers and give israel a

had to give before an

continues to give it money.

aimed to give a positive

simply to give better protection

we should give them a

did not give us a

we can give them some

agreement to give polanski no

and i give numberstring percent

in to give the best

expected to give the cold

believed to give better focus

january to give spurs the

contract does give him the

commit to give numberstring per

set to give england's front

and few give leinster much

chiefs to give grooming tips

it will give highly geared

"i cannot give any information

continue to give urgent action

seeking "to give millions of

champion to give rival kim

vladimir putin give the keynote

"i should give you, the

it can give you a

mission to give the numberstring

due to give two more

defeat would give rudd the

out to give pace bowler

due to give several days

and to give them the

zone would give kigali an

will also give renault a

enough to give raymond domenech's

intended to give moscow an

stage would give breakaway riders

workforce, should give employment preference

polls will give local and

is to give the attorney

half-time to give menoua a

headset to give five commands

guidance", and give retail investors

that would give us forces

hoping to give both significant

problem to give a typically

prosecutor should give a positive

reluctant to give credit while

it would give numberstring,numberstring for

fails to give un inspectors

talks to give seoul officials

you to give a round

and should give much hope

china to give its economy

generation to give back to

therapy to give elderly patients.

and will give breeders stocks

nigerian militants give oil workers

would not give up, even

icrc's visits give those in

partnership" would give chinalco stakes

law and give the original

polemic or give people the

smiles to give some gibberish

which would give eu nations

reluctant to give interviews.

zoo could give the local

acquisition will give eni additional

antwerp, to give other activities"

to somehow give you the

designed to give europe a

failure to give its definitive

is to give a series

system, will give a keynote

second to give philadelphia a

did not give spending figures

that would give at best

did not give any details

fight to give klitschko his

half-time to give santos victory

it would give obama the

expected to give testimony, probably

it doesn't give everton enough

that should give england some

downsizing would give jal some

scheme to give chrysler as

hawk helicopters give only a

plan to give numberstring billion

does not give banks sufficient

injustice to give these veterans

will only give 4,numberstring ex-gurkhas

agreement to give jobs to

due to give presentations to

has to give us hope.

truce would give an opportunity

required to give notice of

due to give the house

leaders will give obama a

i won't give up," fendall

egypt to give a major

it would give "deferred awards"

company to give an indication

orange would give t-mobile "a

who would give jimmy the

organised to give america's cup

did not give the date

try to give cupid a

designed to give england first-class

is to give the federal

needed to give the markets

1, to give harvey enough

attempted to give prince philip

wanted "to give a new

did not give any further

"(the reserves) give hong kong

was to give tuesday in

he can give toyota what

first to give evidence.

plea to give "the talk

progress to give copenhagen negotiators

want to give more experiences

plans to give the alleged

and to give them difficulties

tehran to give an official,

able to give something back

not initially give any cause

days to give at best

that will give more backing

in turn give those items

government will give preliminary results

"i don’t give any advice.

to jointly give development assistance

settings to give the more

agriculture to give livelihoods to

united will give ferdinand as

participate and give the many

berlin will give bolt a

unions to give feedback to

seeks to give the public

precisely to give names to

we don’t give up.

certain to give reserve goalkeeper

government can give the go-ahead,"

want to give back to

agreement to give financial support

lapasset will give a key

appeared to give netanyahu some

expected to give greater freedoms

that it give its neighbors

stability can give a sportsman

failed to give macau citizens

stocks cannot give hints yet

did not give a specific

ribery "doesn't give a damn"

declining to give any details

enough to give city their

will likely give the financial

want to give anything to

information to give concerning the

likely to give aston villa

decision to give frenchman michel

to immediately give it back.

proctor to give inverness three

jiabao, will give reassurances to

plan to give wider rights

due to give birth, with

would then give china's largest

could not give mandates to

union can give (the deal)

and may give further ammunition

will never give made-in-nigeria medicine

city to give the students

team to give so much

us to give aid to

amnesty, to give dialogue a

-- to give to communist

order to give ukraine an

wenger will give fabregas until

did not give any information

declined to give occupancy rates.

will not give up," the

need to give his back

name or give any details

row to give sugita two

set to give stoke all

arises... we'll give a very

on friday give a progress

"ashamed" to give his real

friday and give my country

relays to give america's superstar

is to give israel's response

declined to give timing details

steps to give the cuban

interview would give couric "a

that can give the burmese

singapore will give a "new

having to give voice commands,"

consumers will give second-hand items

time, and give absolutely everything

today to give johanna sigurdardottir

advice we give to ships,

that could give boeing an

would never give up," said

still to give its opinion.

me to give donations, i

manage to give unasur a

europeans to give second-hand items,

tuesday to give suu kyi

wednesday to give prop geoff

it would give ioc president

aiming to give hie a

structure could give ibm the

moscow will give 2.numberstring billion

you can't give to anybody.

volunteers to give a notorious

work and give lectures.

due to give the reasons

it should give a more

able to give details of

no longer give russia lessons

not immediately give casualty figures.

authorities to give news on

loss will give india the

she would give her numberstring-year-old

plan to give the alleged

it would give "huge impetus"

- to give more votes

journalist to give his account

happy to give waugh a

and doesn't give clear direction,

"kyrgyzstan will give russia control

present to give firm forecasts.

on wednesday give a showpiece

supported to give developing countries

fdp to give the private

skill to give celtic the

seconds, to give everton the

process to give the former

did not give his surname.

bid to give the specialist

would not give the keynote

visit will give a new

figures and give a more

reforms will give a greater

failed to give alleged offenders

states would give 3.2 billion.

williams to give clijsters two

that will give them a

did not give his name

expected to give liddy a

that will give risk appetite

designed to give andy flower

enough to give terry butcher's

that would give employers the

un to give an advisory

japan will give another four

and i give more than

"very soon" give the international

but comedians give the same

support to give georgia, partly

declined to give an outlook

burnley will give arsenal the

does not give tangible signs

transactions would give pldt-lopez a

will also give light training

government will give its second

mosque to give thanks.

act will give these hardworking

obama will give on june

want to give an impression

germany will give one million

staged to give some of

states and give technical training

and never give up," lauded

ready to give his life

long to give news on

will not give (up) anything

eu to give france, spain

on to give traditional blessings

could not give any further

unable to give details on

expecting to give himself a

it will give lufthansa a

that banks give detailed descriptions

he must give nine months

would not give further details

users and give it back

president to give international humanitarian

deal to give iaea inspectors

order to give more spaces

strike to give manchester united

it would give zimbabwe numberstring

states doesn't give up, and

saeed to give a detailed

numberstringth to give her and

month to give impetus in

who doesn't give me a

and to give the authority

that could give the struggling

"we cannot give figures that

court to give guidance on

agreed to give tennis australia

japan will give up to

to help give saudi players

order to give canada's team

need to give them the

keen to give its own

kyrgyzstan must give the united

enough to give kvitova a

able to give us a

pope will give a mass.

he could give bolt a

seismograms may give little help

out to give paceman ten

the administration give congress at

looking to give its struggling

deal to give the us

would not give further comment.

korea should give greater access

continue to give it all

rosicky to give a boost

why or give further details.

able to give youtube reference

would "never give up" in

plans to give a much

likely would give the new

availability will give ferguson a

chances to give tenerife the

vote would give helsinki more

have to give their versions

we can give people the

iran must give the international

nations that give to us.

group" would give porsche "new

willing to give the developing

love to give you a

last to give himself a

sales would give an accurate

something to give a competitive

intended to give a political

refused to give public aid

prices would give support to

technology to give it near-zero

want to give people something

sunday to give briefings on

commission will give the final

not immediately give further details.

possible, to give this youngster

that doesn't give you the

and we give them cigarettes

they would give rise, especially

numberstring, would give fiat a

due to give his personal

says would give mainland property

domingo will give a free,

media cannot give orders, but

they didn't give the new-look

expertise will give england's bid

japan would give numberstring million

third to give a complete

he would give numberstring percent

i will give numberstring percent

i will give kosovo high

did not give figures.

... to give a message

"we will give another update

tehran would give the additional

order to give every ivorian

push to give local firms

project would give residents public

brazil either give zelaya refugee

tehran to give the international

failure to give an answer

efforts to give lebanon a

sunday to give their input

fails to give official recognition

friday will give a first

and will give the committee

langtry and give trainer ed

ability to give spain a

it says give vital support

capital to give added impetus

promise to give hope, using

korean authorities give a full

order to give a diplomatic

creus to give him his

which will give edwin van

will also give more certainty

will initially give fiat a

dose will give sufficient protection

penalty and give villa a

the shebab give of islam".

bowlers to give the home

have to give him a

due to give the headline

fails to give alleged offenders

refuses to give access to

enough to give betis the

afternoon should give wall street

nadal and give congratulations before

climbs, will give both cervelo

will not give work to

threatening to give mark schwarzer

her book give details on

earlier we give the tools

not yet give a casualty

bill could give the government

fed will give a slightly

due to give on sunday.

saw protesters give chase, then

much you give them," he

possible to give concrete help

was to give chandler a

did not give details about

mid-on to give medium-pacer simmons

decision will give obama's democratic

hughes and give pompey's own

prison authorities give inmates only

preliminary results give karzai numberstring.6

claim and give pim a

seeks to give a boost

information to give to you,"

contestant to give details of

players must give their location

steps to give kurds political

likely to give debuts to

did not give further details

proceedings and give a chance

posts to give the bulls

is to give midfielder arnold

africa could give a reprieve

expected to give quarterly production

technology could give a new

but we'll give every deal

unable to give past examples

but also give the bloc

neck-and-neck, but give berisha's right-wing

did not give ground.

russia might give venezuela a

us to give haiti more

discovery could give chinese mills

called to give evidence.

would only give residency rights

will also give angola an

it would give indonesia about

opportunity to give good life

... must give a sign

wanted to give a free

nations to give training and

go to give my vote,

position to give land," said

legitimate, and give american businesses

company would give rewards for

police cannot give a statement

much to give to the

trial to give "real justice,

schoenbrunn, "will give the zoo

latest results give the opposition

likely to give river levels

and condoms give people the

used to give dairy products

wanted to give them to

wanted to give people "greater

declining to give details for

said, would give arroyo an

football doesn't give you a

agreed to give an "additional

legislation, and give unequivocal orders

dismissal will give pakistan desperately

numberstring) to give a recommendation

unable to give further details.

declining to give details about

means to give momentum to

attack or give details but

compatriots to give up on

that iran give access to

sufficient to give protection against

will also give retired state

it would give updated full

ready to give up grand

"you can't give these houses

is to give us citizens

did not give exact figures

they can give some quality

had to give ben some

round to give her their

is to give the paris

month to give the group

deaths or give any details

i can't give any particulars,"

day to give the four

determined to give captain darren

wiesel will give his own

perez would give zidane an

like to give it up,

"(ozawa) must give an explanation,"

labour should give netanyahu the

sellers must give a positive

floor to give what the

some afghans give false information

mills to give mcglashan his

franco and give her take

it would give face masks

commission will give greece until

benchmarks to give long-term momentum

tricks to give the impression

is to give obama some

has to give countries hardest

they should give the referee

tried to give medical care

india may give a chance

would instead give pyongyang's regime

far, to give himself a

fans can give a little

russia will give serbia a

continues to give evidence that

going to give them the

potential to give humans spontaneous

will also give testimony.

wants to give more," added

results and give teams extra

motion would give president jose

promises to give greater flexibility

creditors to give a six-month

years will give the confidence

mcmanus, to give celtic the

eu could give iranian reform

failing to give required radio

absence should give carlos tevez

are to give europe a

it will give momentum to

growths to give the market

exit to give commanders more

reluctant to give his real

we will give the final

failed to give alleged pirates

deal would give legitimacy to

militias that give cover to

or to give the government

move could give china a

band u2 give a free

aims to give a positive

has to give continued high

weak to give chinese exporters

agreed to give his country

aim to give a boost

numberstring, could give evidence for

egypt will give swine flu

reluctant to give direct aid

increase to give germany greater

proceedings" and give "preference to

videogame and give them all

did not give obama a

plans to give 4.1 billion

declining to give further information.

helping her give birth, he

did not give his name.

deplorable to give positions based

nations to give an advisory

decision to give romanian citizenship

would not give any details

once again give the anc

drivers who give right of

did not give more details

that will give opel ...

will soon give the un

neuman to give venezuela an

did not give a breakdown

seem to give too many

commission to give their side

wants to give the club

people to give evidence, most

that will give employers the

laws which give english and

prepared to give arjen robben

commission to give the green

london would give the additional

half-time to give gabon a

we also give them background

they could give enemies an

that would give bing, the

deals would give switzerland the

support and give president barack

mentally to give absolutely everything

extension would give the authorities

(adb) will give vietnam up

companies to give local businesses

the commander-in-chief give the go-ahead

thursday, to give young fullback

do not give up.

did not give any indication

report will give a boost

they could give us a

would also give their backing.

us to give numberstring percent

or to give their names.

needs to give is the

(fln) to give algeria a

unable to give details.

way to give 'followers' an

intended to give russia an

have to give cash handouts

these languages give us a

however, to give james another

wine to give classes.

able to give guarantees about

in and give vanoc an

also to give some more

state should give washington's policy

countries should give a single

advantage they give in the

also will give up pay

that we give and so

will initially give the italian

do not give too much

"we will give a fitting

expected to give a significant

wanted to give them the

job to give a discounted

did not give estimates of

need to give penalties away

it would give english talent

local governments give cash incentives

that would give pdvsa a

forward to give poor countries

decision to give obama the

ruling will give clarity on

"this will give skype the

games will give brazil some

wanted to give up a

policy will give more certainty

here to give obama a

to try give egyptians back

she would give her decision

it could give the spaniard

it would give india at

partners to give their support,"

obama to give an oval

post would give france influence

which will give europe a

"i will give ukraine a

and roger give nothing away.

"berlusconi doesn't give a crap,"

ago which give indications for

rangers should give the rest

and intransigence give great advantage

tropical diseases, give numberstring million

nets to give asian consumers,

against durham give vaughan, who

they could give me, but

numberstring would give rovers something

continued to give his side

enough to give them a

expected to give his own

laws which give the government's

bid to give the training

moratorium would give the time

arrest, or give further details

unable to give any further

wouldn't often give that criticism

news portals give an immediacy

"this will give windows 7

"we can't give guarantees," miller

tvs, which give the illusion

professional and give everything, i

change will give banks more

we didn't give early wickets

be to give death, no

did not give way.

harper to give to obama

lawmakers would give "strong support"

due to give a news

unable to give any credible

company to give up on

public would give prince harry

wickets to give sussex the

beshir to give peace efforts

regulator will give all ocean-going

seemed to give rio janeiro

may, to give rich and

ought to give fellow minnows

declined to give a tally

bid to give millions of

and (to give them) the

strike to give boro hope

that would give concern.

threat and give russia their

bidder to give time for

assets to give the company

way to give "solid scientific

that they give us seriously.

america would give iraq the

"we can't give more information

declined to give specifics.

action to give some concrete

deal will give us access

record to give them a

fed "to give a very

up to give evidence.

would only give a bulletin

tuesday to give protection to

but will give bordeaux confidence

banks to give it financial

market and give the currency

agreement to give the milf

will help give faster predictions

may also give its final

expected to give numberstring billion

we cannot give any timeframe,"

bill and give oil minister

states must give civilian assistance

legislation to give capital market

incidents, which give goa a

stages should give pakistan an

hours, to give this money

deals that give a foreign

it would give dst a

want to give us, but

will only give once the

want to give time to

will not give a dividend

able to give our supporters

expand abortions, give health care

agreed to give prague an

numberstring to give more equal

support would give new era

"it doesn't give you many

he would give himself.

with hull, give united the

will also give numberstring,numberstring euros

traders to give their customers

air would give hull hope

structure to give their bilateral

buy would give sterlite access

tribal gunmen give philippine police

declined to give pricing details

smith to give mcgregor a

willing to give this latest

willing to give obama time

i can give what toyota

closed to give inspecting commonwealth

due to give on thursday,

wednesday to give residents of

did not give a time

month will give the first

it would give numberstring million

win, will give full- back

did not give specifics.

"it will give music fans

released or give details of

is to give birth.

will not give services and

yet to give the loan

"we didn't give up," howard

calderon would give a news

shanghai to give himself a

people was give legal and

that will give fresh clues

which will give a new

that would give a combined

children and give them vocational

authorities rarely give hard figures

needed to give their consent

did not give other details.

intends to give new boss

try to give assessments until

looking to give spain its

date to give reliable figures"

called to give evidence, fortiseffect

bound to give this country

did it give any information

match to give europe a

he will give americans sought-after

did not give the total

expected to give a final

designed to give marketers "effectiveness

is to give first details

history to give to serbia

american consumers give to the

jordan will give world number

four would give gates a

failed to give the club

remaining to give celtic their

son omar give a rare

does not give women inroads

"we will give a loan

we would give a hand

is to give women much

but to give their fanatical

australia will give test skipper

today to give the market

appeared to give offshore investors

sturridge to give chelsea a

senate will give bipartisan backing

purchase or give a possible

enough to give leverkusen the

stadium to give a speech

continue to give operational support,"

did not give quarter-on-quarter growth

season and give wolfsburg coach

can only give my players

did not give an indication

declining to give further details

set to give ruling party

only to give evidence in

institution will give haiti an

states and give a healthy

washington will give haiti numberstring

which would give spain a

official numbers give significantly lower

did not give a figure

open to give access to

that could give president barack

not immediately give a breakdown

he can give us, so

viewers to give obama some

refusing to give any details

now can give a complete

prepared to give is really

he could give numberstring-year-old irie

days to give final results

declined to give casualty figures.

help and give professional training

and to give players some

best to give australia something

community to give all we

able to give a clear

he could give usain bolt

france will give its full

mourinho to give reserve goalkeeper

weak to give its exporters

are to give this year's

action... to give a push

had to give it.

try to give "eternal life"

are to give the economy

investments to give existing clients

kyrgyzstan and give numberstring million

that could give a splitting

need to give leeds credit,"

promised to give a speech

aso "to give korean residents

they will give 4.2 million

had to give some concrete

that will give both her

offered to give lessons for

you consequently give the other

years to give the executive

did not give a more

prepared to give extra support

declined to give any more

had to give blake any

intends to give the money

crisis could give iranian authorities

did not give any specific

fabianski to give wigan a

work and give the world

donors to give new aid

"i won't give a concrete

it will give its leu

but to give a political

due to give an answer

week to give safety assurances,

second-half to give irish rugby

proposals would give the federal

fails to give a detailed

expected to give merkel a

trying to give telephone support

did not give tomita a

his parishioners give weird and

day will give all australians

the results give the party

and will give everything.

expected to give to their

continue to give ariane a

measures would give france "the

numberstring to give europe the

ready to give poor countries

would shortly give details of

declined to give details but

parliament "to give the russian

bank will give a clear

they can give him a

"we cannot give the all-clear

drive to give dave bernard

enough to give chase.

bajaj or give any details

powerhouse will give rio tinto

pay, and give our veterans

executives to give the green

"they didn't give up.

his team give a much

march to give romania a

able to give them the

eu will give struggling eastern

would not give details to

community can give fiji the

welcome to give (them)," he

we will give 1.9 billion

did not give jackson powerful

refusing to give any further

opportunity and give australia a

you can't give up, you've

home to give birth.

refuses to give a blood

designed to give london a

strong and give everything," said

who can give the passes

due to give to a

loan will give some breathing

duty to give competent and

awaken and give employment and

events will give us the

volley to give roddick the

mistakes to give england an

they also give us rice

grid to give simoncelli a

coolly to give shakhtar the

that will give a clearer

would not give details of

have to give numberstring percent

available to give details of

france and give a public

that would give elin a

difficult to give a definitive

nod to give wales six

it could give no information

parliament and give a proper

koizumi and give a speech,

offensive could give the movement

able to give graveside readings

agreed to give recommendations to

parties to give their views,"

ltte to give sober and

those who give their lives

did not give the right

teams, and give ideas to

could not give further details

place would give liverpool hope

we can give you," a

latest estimates give djukanovic's "european

expected to give further details

but could give no figure

it could give a green

did not give an estimated

delayed to give china the

did not give an expected

declined to give details although

of recession give the ecb

and to give a press

who to give the go

that will give the security

fault to give sharapova match

would not give testimony.

imbalances and give more voting

france would give obama an

not immediately give evidence because

businessman to give the chen

enough to give new boss

one to give suarez navarro

did not give kiev equal

would not give vojvodina --

davos to give alternatives, because

would also give an unprecedented

(imf) must give china a

friday, which give thais numberstring

arrangement would give westinghouse the

it would give obama "the

before we give more," said

wants to give her support

formed to give its members

said, should give obama authority

8/1 to give trainer john

mandate to give equal treatment

hull to give newcastle a

buddha" and give wang energy

capital will give the airline

need to give them some

as we give a good

did not give further details,

football, to give the crowd

countries already give foreign investors

lending and give a boost

community to give "a legitimacy

opt to give mexican youngster

plans to give the panel

over to give england a

"those who give various civilian

that would give concern," said

hope to give a definition

want to give a specific

it will give a tax-free

prefer to give turkey some

it will give new fans

order to give israel more

thrust to give spinners a

hope to give publisher partners

that will give the alleged

did not give an interview

and will give my reaction

unlikely to give local sentiment

it will give terrorists in

weeks to give markets confidence.

often must give police hefty

limit to give him more

tehran to give sanctuary, telling

carbon prices give businesses little

and would give aquino a

mission to give the numberstring-year-old

request to give testimony in

corner to give the visitors

ready to give obama time

"resistance" to give more voting

set to give forgive his

"relative" to give details of

work and give them access

"cinemash will give talent a

tuesday to give a detailed

set to give medvedev the

chosen to give ahmadinejad the

moscow will give its official

keen to give blood.

intends to give netanyahu up

they didn't give a metre,"

her to give clijsters two

fox to give the number

work and give numberstring cents

expertise that give africans greater

pakistan must give access to

draft would give an "unfair

have to give more respect

unable to give firmer figures

that will give more reliable

willing to give us president

and also give the region

agreed to give the bonuses

wonsan to give field guidance

would not give more details

able to give more details.

that we give all these

deadline would give airbus and

said he'd give the serbian

states that give inmates the

prepared to give their final

owners to give crew members

aims to give sweden "one

did not give evidence to

that will give a snapshot

which will give a clearer

collected to give a nationwide

out to give hamburg a

up to give himself a

too, would give "key technology"

could not give specific guidance

decision to give state support

and to give key emerging-market

government will give new official

does not give it voting

documentary would give a voice

owen can give united another

unable to give any figures.

he will give teachings at

employers to give maids a

could not give any details

prepared to give naval resources

hope to give the fans

prize will give instant luster

"but we'll give it as

results and give positive guidance

karimov or give details about

does not give germans an

blair could give evidence to

congress, would give the federal

workers to give the urgently

trial should give "real justice,

rates" and give "a considerable

news, would give iranians "a

due to give a video

"i could give (obama) lessons

idea to give a speech

was to give loan guarantees

companies to give clients numberstring

due to give a joint

their government give more funding

like to give them the

donor must give written permission

"need to give an historic

refused to give ben foster

as to give establishments, and

to "never give up" on

had to give eight dogs

gully to give kemar roach

side will give bundesliga leaders

they can give up," verhagen

will only give 4,numberstring more

thursday to give brazil their

it would give serbia a

hotline to give those who

wednesday to give 2,numberstring-baht (numberstring-dollar)

summit and give a major

numberstring that give emerging market

division to give back numberstring

emissions and give financial support

saw scotland give new zealand

failed to give investors any

second, to give an boost

set to give a major

is to give himself a

created to give major league

owner and give sbab a

news to give today.

university would give afghans knowledge

move "would give a better

able to give further details.

able to give chavez a

obama will give a major

isiah will give fiu a

would not give any more

"did not give voters any

they can give loans to

assistance to give them.

over-time to give new orleans

and could give barroso's critics

willing to give ground, some

did not give any names

necessary to give humanitarian consideration

(numberstring) did give yardy some

yet to give a clear

fatherland to give up such

athletes to give notice of

government would give strong support

campaign to give his beloved

japan could give a boost

they will give good treatment

that would give consumers a

resources to give a good

declined to give any comment

bogdanovic to give barnsley hope

he would give his signature

soffin, will give numberstring million

it will give zimbabwe numberstring

needs to give a final

government to give much needed

gmt to give further details.

declined to give further details,

effort does give fisher's confidence

agency to give the go

request, "to give a greater

prepared to give them up,

data to give a more

say to give russia the

which could give fresh clues

little to give to their

"we can give an important

declined to give any further

qualifying will give three drivers

we should give zimbabwe the

needed to give the fans

but to give chinese consumers

ochieng to give nigeria top

like to give my sincere

in turn give its neighbour

is to give up.

-- should give developing ones,

did not give details including

could not give more information,

potential to give its neighbours

government should give ngos opportunities,

africa will give track champion

did not give details.

he could give roger all

developed to give labour camp

is to give demonstrators a

and to give an good

did not give evidence, did

expects to give him around

iran will give a "firm

set to give an afternoon

"we can give housing to

determined to give park his

failure to give equal weight

not immediately give further details

got to give bernard some

talks to give ukraine a

it would give mexico one

seeking to give that little

planning to give a positive

we can give them protection.

bench to give them time

way to give an interview

could not give further details.

companies who give their employees

assured to give thermal scanners,

declined to give further details

that can give the rest

numberstring to give swann his

far to give opel any

also, however, give president barack

america will give iraq the

it would give gloucester shareholders

rules will give world trade

had to give calvisano a

it could give no guidance

united should give inter milan

copenhagen will give positive momentum

markets to give us advice

me to give up, plus

which will give visa overstayers

duch to give his own

set to give auto maker

we will give them respect.

numberstring, should give evidence as

meant to give as much

government could give specific details

well-wishers traditionally give to newlyweds.

declined to give details saying

alliance would give chrysler immediate

it will give nord stream

government to give swift justice

want to give the impression

donors to give 8.5 billion

ready to give money," el

have to give financial support

hiding to give a speech.

in kabul, give karzai 3,numberstring,numberstring,

"us authorities give public declarations

"the steelers give pittsburgh a

it does, give the go-ahead

it would give up to

elections will give the international

information to give a greater

failed to give its veterans

seat could give other parties

heads or give up.

time to give new impetus

before we give any kind

did not give specific details

did not give specific figures.

will now give his first

speed indicators give conflicting read-outs

yet to give a definitive

numberstring to give pakistan a

poised to give her final

enough to give the club

and was give only three

he could give populist answers

"does not give credit", the

did not give a new

government would give an "appropriate

is to give a good

authorities have give no reason

will not give in," the

offering will give subscribers a

wants to give tomas rosicky

then to give burnley a

he will give midfielder alberto

confident to give hughes out

4 to give a speech

asprilla to give the visitors

hesitant to give more cash

platform to give buyers a

patented products give fabrics used

(ltte), to give "absolute priority"

have to give an answer,"

"he didn't give a specific

that would give indigenous communities

it would give its own

wicket to give england a

"these delays give some breathing

promise to give "free service

government should give textile companies

failed to give him a

government could give them a

can to give the agreement

of 1,4-dioxane give "cause for

firms to give employees a

have to give credit.

gonzalez, would give the world

position to give our business

failed to give job assurances

currency, would give more flexibility

regulations to give cuba a

benedict xvi give an open-air

military operations, give the country's

team will give everything they

change to give president mamadou

legislation to give authorities and

continue to give both drivers

intended to give us-manufactured goods

predict will give leftist president

pioneer could give honda an

decision to give jonathan trott

whether to give danish- born

declined to give details pending

(ltte) to give "absolute priority"

myself and give numberstring per

best to give an accurate

elections would give south african

failed to give notice of

agreed to give mexico five

could not give it up.

injury will give juventus added

about to give birth.

diluted or give chartered some

numberstringmin, to give palermo a

celebrations should give an opportunity

aid to give financial support"

did not give an exact

while, i'll give numberstring per

presidents traditionally give in subsequent

header to give phil brown's

full-time to give santos maximum

we will give one hell

expected to give more help

will reportedly give smith more

like to give vick a

willing to give up.

it would give a more

toronto to give enough indications

refused to give any details

"we can't give comments regarding

korea to give details about

row and give numberstring-year-old jose

"i can't give you really

constitution to give kuwaitis a

plans would give a boost

able to give his family

used to give a leg

declined to give any specific

agreement to give muslims greater

open to give glimpses of

kaka) will give ronaldinho space.

negotiations... and give time for

prepared to give up its

they should give the final

issues and give the uk

set to give beleaguered bradford

it will give numberstring million

authorities to give the false

devices, which give a crucial

began to give del potro

was to give a statement,

did not give reveal any

saturday will give australia the

expected to give a more

is to give the impression

did not give me the

will not give a green

plan would give crucial support

not immediately give details.

bid to give "green shoots"

inability to give an earnings

pounds, which give england coach

need to give dossena time

power will give another priceless

agreement to give jobs at

did not give any reasons

and will give concerts in

that doesn't give us any

georgia and give saakashvili an

tomorrow (wednesday) give the mediator

i can give schalke such

could finally give the character

speed indicators give conflicting readings

expected to give small- and

enough to give birmingham all

delay will give technical teams

declined to give a reason

him to give me a

it would give an additional

asked to give their opinion

agreement would give petrochina an

wishing to give details of

ceasefire to give civilians a

we can give complete provisional

prepared to give alinghi "reasonable

genro to give protection to

way to give banks confidence

it will give england the

when they give up.

could to give the crowd

campaign, people give money, t-shirts,

bowlers to give sri lanka

and repeatedly give his own

and we give everything.

rose to give an estimated

government would give "extremely precise

did not give his second

easing should give the uk

expected to give further indication

could not give security guarantees

british agents give testimony.

due to give details at

all, to give every child

aiming to give the government

that could give leftists more

that would give them a

ready to give in, and

firms to give shareholders a

did not give the value

that can give new orleans

bill "would give trade remedies

conditions and give an outlook

it doesn't give them too

briscoe to give roger penske

conservatives, and give details of

believes will give much greater

teams, then give a large

aims to give america's cup

ferguson to give the impetus

latest estimates give djukanovic's coalition,

tactics to give ahmadinejad a

i cannot give an explanation

opportunities to give input," he

mubarak to give ireland, who

people to give 1,numberstring yen

management to give a report

want to give away undue

did not give her immunity.

revenues); to give guidance on

may also give arroyo a

did not give him the

merger will give china eastern,

bush, would give evidence --

state and give israel security,"

award will give instant luster

that we give a signal

ceiling to give a "political

wish to give evidence, could

unable to give more details.

deadline to give the us

and to give it openly.

can you give your son

serves to give china a

obama will give a back-to-school

bank will give haiti an

"we won't give any ransom,"

tie-up would give chrysler access

declined to give details about

visit "will give a powerful

did not give a detailed

said, to give the internal

if we give everything, close

program to give aspiring world-changers

did not give us anything.

not even give her food,"

-- to give ground.

seeks to give the bloc

begun to give mali military

declining to give details.

clinton to give emergency funds

ewes that give birth earlier

there and give relief and

have to give obama real

obama will give a long-awaited

campaign to give australia an

did not give any other

refusing to give her last

lama would give a public

us to give mexico numberstring

they will give me 4,numberstring

is to give a competitive

"it will give new ammunition

"he doesn't give value for

there to give locals safer

would not give up.

refused to give figures but

agreed to give it numberstring

needed to give these girls

need to give up a

we will give the answer

looking to give jonathan an

"it might give regions of

expected to give americans an

not to give them a

agency to give the go-

response to give to this

did not give reasons for

rules and give two to

unavoidable to give the prize

soon to give major financial

was to give evidence on

deal will give innolux, which

and cannot give any further

said would give south africa

firms to give -- for

he will give goals away

which we give near-zero odds

dollars) to give the economy

al-qaeda, and give as examples

continue to give washington access

need to give penalties away.

we will give the information

agreed to give french generals

law and give shelter to

ready to give refuge to

to help give india's marginalised

military rulers give proof of

poll to give dialogue a

inflation, would give statisticians more

"gazprom would give numberstring million

is "to give each visitor

before we give you really

planned to give thursday's tokyo

year to give sri lanka

us to give a reliable

his team give pakistan a

promised to give its answer

want to give beckham up

will not give any further

monday to give temporary guardianship

club can give outgoing coach

project could give tehran nuclear

they also give chinese firms

would not give company forecasts

have interpol give rosales' case

seemed to give away too

that doesn't give them the

summit will give us an

monday should give a more

wanted to give the same

numberstring, will give japan access

it will give clubs an

did not give his name,

planning to give the left-arm

plan would give bondholders up

unable to give specific figures

does not give details of

summit should give zimbabwe strict

plesca didn't give a new

will likely give a more

due to give two concerts

gifts, "i give nicer stuff

expected to give the first

"that can give a strong

unable to give milk.

does not give me a

market and give our proposal

legislation would give one full

relations would give a boost

would locally give a lead

blair will give evidence, although

elections would give ivorians a

was to give an interview.

it will give numberstring,numberstring euros

need to give beijing a

it would give a boost

socrates to give the impression

himself to give brazil an

well as give individuals advice

keen to give roma a

to help give security to

i couldn't give any rest

we will give it.

want to give the land

continued to give menacing signals

country would give up to

failed to give guidance about

australia will give up to

expected to give formal backing

that would give australia a

which would give cgnpc numberstring

having to give evidence at

senate could give bipartisan backing

i will give them.

language, would give sigir independent

growth and give a much-

surveillance can give a contagious

contacted, or give their identities.

ready to give on tuesday.

africa to give evidence," said

communist state give a fuller

opportunity to give so many

structure would give comcast a

budget may give fans of

showpiece would give barca their

hesitate to give opportunities to

attempt to give some competence

contacted, or give their identities,

agreed to give state support

chance to give celtic the

it will give a top

commission will give its report

and to give their negotiators

date to give the defense

and to give many homeowners

news to give some direction

is to give a preliminary

forward and give information to

delhi to give an award

togo would give gabon a

more before give more," said

expected to give some of

yet, to give chairwoman feroukhi,

korea will give a positive

did not give an estimate

and to give hope to

room will give their players

warranty and give consumers a

intended to give a conditional

postponed to give them time

pyongyang to give a full

did not give us the

figure to give woods, a

aim to give foreign account

news can give certain stocks

policy or give the orders.

sunday to give trainer jean-claude

which should give milan a

camara to give a written

afghanistan often give conflicting casualty

go and give my best.

them to give kawaguchi a

vessel or give its exact

thursday "and give iran's response

that will give the legislative

holed to give himself a

it to give the international

device to give a sense

could "eventually give greater freedom"

canada to give additional numberstring

june will give ferrari an

training to give himself a

openers would give a solid

bank to give confidence to

that would give authorities in

designed "to give consumers who

aid and give even more

warrant "to give a greater

government will give all its

wednesday to give special attention

be to give only the

was to give a speech.

europe will give 7.2 billion

not immediately give a motive

continue to give deadlines," said

ready to give ground.

route would give russia new

have to give them a

launch "will give the north

it would give numberstring,numberstring dollars

creditors to give the airline

figures would give djukanovic a

us to give fool-proof security

information, or give sheikh mohammed

not immediately give details on

decision to give a speech

would not give details.

he will give his full

we can't give the french

players that give you more

third to give venezuela the

it will give troubled us

numberstring to give australia their

that they give young people

that will give united's champions

failing to give a date

set to give jonathan trott

clinton will give president barack

government to give a reason

legislation helps give pakistan the

swap to give effective control

success can give the project

milan board give leonardo if

did not give any time

gamble to give the second

that supposedly give huge performance

ready to give a permanent

place or give any other

star might give up.

set to give lions utility

announcement will give "some breathing

tend to give the appellants

to help give a positive

that could give a bullish

batting to give bangladesh the

and would give china more

against, will give the food

postponement, or give any details

wanted to give a closer

have to give more access

did not give predictions for

systems and give ella's pink

came to give his address,

intercepted to give arizona the

failed to give enough details,

could also give a boost

declined to give details.

"we can't give sheets, that's

shell to give some focus

they would give aung san

seen flintoff give them with

or to give their nationalities,

would only give pyongyang the

will always give numberstring per

imf and give argentina a

